…
isaac_high_country
```

    ## # A tibble: 41 × 6
    ##    country_centre whezev_prev whez12_prev exwhez12_prev awake12_prev     n
    ##             <dbl>       <dbl>       <dbl>         <dbl>        <dbl> <int>
    ##  1           1.02       0.998       0.975         0.612        0.129   959
    ##  2           3.03       0.801       0.693         0.471        0.216   473
    ##  3           4.02       0.952       0.942         0.464        0.118   703
    ##  4           7.02       0.707       0.548         0.300        0.119   604
    ##  5           7.06       1           0.995         0.471        0.168   191
    ##  6           8.03       1           0.987         0.496        0.127   228
    ##  7           8.1        1           1             0.460        0.205   161
    ##  8          10.0        0.975       0.938         0.15         0.125    80
    ##  9          10.1        1           1             0.239        0.130    46
    ## 10          11.0        0.681       0.543         0.265        0.127   457
    ## # ℹ 31 more rows
