…
country_q27_q36=
  q27_q36|>
  select(country_name,child_participation,school_participation)|>
  group_by(country_name)|>
  summarise(mean_child_participation=mean(child_participation),
            mean_school_participation=mean(school_participation))

country_q27_q36
```

    ## # A tibble: 47 × 3
    ##    country_name mean_child_participation mean_school_participation
    ##    <chr>                           <dbl>                     <dbl>
    ##  1 Albania                         0.905                    0.667 
    ##  2 Argentina                       0.896                    0.0126
    ##  3 Australia                       0.838                    0.359 
    ##  4 Austria                         0.936                    0.995 
    ##  5 Barbados                        0.822                    1     
    ##  6 Belgium                         0.858                    0.965 
    ##  7 Brasil                          0.763                    0.335 
    ##  8 Canada                          0.756                    0.717 
    ##  9 Chile                           0.871                    0.829 
    ## 10 Costa Rica                      0.841                    0.0139
    ## # ℹ 37 more rows
…
